<?xml version="1.0" encoding="UTF-8" standalone="no"?>
<svg width="38px" height="38px" viewBox="0 0 38 38" version="1.1" xmlns="http://www.w3.org/2000/svg" xmlns:xlink="http://www.w3.org/1999/xlink" xmlns:sketch="http://www.bohemiancoding.com/sketch/ns">
    <!-- Generator: Sketch 3.0.2 (7799) - http://www.bohemiancoding.com/sketch -->
    <title>Artboard 1</title>
    <description>Created with Sketch.</description>
    <defs></defs>
    <g id="Page-1" stroke="none" stroke-width="1" fill="none" fill-rule="evenodd" sketch:type="MSPage">
        <g id="Artboard-1" sketch:type="MSArtboardGroup" fill="#00964B">
            <rect id="Rectangle-1" sketch:type="MSShapeGroup" x="7" y="11" width="24" height="2"></rect>
            <rect id="Rectangle-2" sketch:type="MSShapeGroup" x="7" y="25" width="24" height="2"></rect>
            <rect id="Rectangle-3" sketch:type="MSShapeGroup" x="7" y="18" width="24" height="2"></rect>
        </g>
    </g>
</svg>